Month-Year,Demand Charge ($),Original Demand Charge ($),Energy Charge ($),Original Energy Charge ($),Billing Period
2017-01,-212907.6004868856,-212907.6004868856,-39457174.3913429,-39459001.53598549,1
2017-01,-106993768.7962463,-106993768.7962463,-39457174.3913429,-39459001.53598549,2
2017-02,-212907.9000109671,-212907.9000109671,-37756530.61513943,-37758151.86957966,1
2017-02,-106993919.3179292,-106993919.3179292,-37756530.61513943,-37758151.86957966,2
2017-03,-212908.76250482793,-212908.76250482793,-49264469.294260494,-49266307.35185486,1
2017-03,-106994352.75228533,-106994352.75228533,-49264469.294260494,-49266307.35185486,2
2017-04,-212908.76251055015,-212908.76251055015,-51426028.452940546,-51427754.457855046,1
2017-04,-106994352.75516094,-106994352.75516094,-51426028.452940546,-51427754.457855046,2
2017-05,-212908.76251197673,-212908.76251197673,-54443719.857578695,-54445461.69498126,1
2017-05,-106994352.75587785,-106994352.75587785,-54443719.857578695,-54445461.69498126,2
2017-06,-226702.8982617675,-226702.8982617675,-55755013.84035775,-55757159.53521567,3
2017-06,-106991928.87265846,-106991928.87265846,-55755013.84035775,-55757159.53521567,4
2017-07,-106982116.52693658,-106982680.31499767,-52459264.438582376,-52461067.69758738,4
2017-07,-226682.107093337,-226683.30169174084,-52459264.438582376,-52461067.69758738,3
2017-08,-226684.89777163405,-226684.89777163405,-51633769.15207254,-51635413.13896364,3
2017-08,-106983433.58135517,-106983433.58135517,-51633769.15207254,-51635413.13896364,4
2017-09,-106984526.40291972,-106984526.40291972,-48575890.86335195,-48577580.93479246,4
2017-09,-226687.21332775662,-226687.21332775662,-48575890.86335195,-48577580.93479246,3
2017-10,-212890.3148783613,-212890.3148783613,-44927469.91196771,-44929130.97472676,5
2017-10,-106985082.15284924,-106985082.15284924,-44927469.91196771,-44929130.97472676,6
2017-11,-106975563.93345945,-106994352.75606242,-38548252.03860011,-38549911.562772684,6
2017-11,-212871.37451132882,-212908.762512344,-38548252.03860011,-38549911.562772684,5
2017-12,-212029.2655472828,-212029.2655472828,-36032943.56154877,-36034577.36396716,5
2017-12,-106552373.72515152,-106552373.72515152,-36032943.56154877,-36034577.36396716,6
